<?xml version="1.0" encoding="utf-8"?>
<!-- Generator: Adobe Illustrator 16.0.0, SVG Export Plug-In . SVG Version: 6.00 Build 0)  -->
<!DOCTYPE svg PUBLIC "-//W3C//DTD SVG 1.1//EN" "http://www.w3.org/Graphics/SVG/1.1/DTD/svg11.dtd">
<svg version="1.1" xmlns="http://www.w3.org/2000/svg" xmlns:xlink="http://www.w3.org/1999/xlink" x="0px" y="0px" width="110px"
	 height="55px" viewBox="0 0 110 55" enable-background="new 0 0 110 55" xml:space="preserve">
<g id="Layer_1">
	<rect fill="none" width="55" height="55"/>
	<g>
		<circle fill="#087B87" cx="27.5" cy="27.5" r="17.5"/>
		<path fill="#FFFFFF" d="M24.79,39.788V26.822h-5.586v-4.666h5.586v-5.459h4.959v5.459h5.539v4.666H29.75v12.966H24.79z"/>
	</g>
	<rect x="54.914" fill="none" width="55" height="55"/>
	<g>
		<circle fill="#68C8C5" cx="82.414" cy="27.5" r="17.5"/>
		<path fill="#FFFFFF" d="M79.703,39.788V26.822h-5.586v-4.666h5.586v-5.459h4.96v5.459h5.539v4.666h-5.539v12.966H79.703z"/>
	</g>
</g>
<g id="Layer_1_copy" display="none">
	<g display="inline">
		<circle fill="#087B87" cx="27.5" cy="27.5" r="17.5"/>
	</g>
	<g display="inline">
		<circle fill="#68C8C5" cx="175.164" cy="28.242" r="17.5"/>
		<path fill="#FFFFFF" d="M172.453,40.53V27.564h-5.586v-4.666h5.586v-5.459h4.96v5.459h5.539v4.666h-5.539V40.53H172.453z"/>
	</g>
	<polygon display="inline" fill="#FFFFFF" points="32.977,30.545 25.849,30.545 23.348,19.694 23.348,18.341 24.537,18.341 
		24.537,17.933 23.348,17.933 23.348,16.657 22.941,16.657 22.941,17.933 21.751,17.933 21.751,18.341 22.941,18.341 22.941,19.704 
		20.351,30.179 20.351,38.343 32.977,38.343 34.649,38.343 34.649,34.013 	"/>
	<g display="inline">
		<circle fill="#68C8C5" cx="82.5" cy="27.5" r="17.5"/>
	</g>
	<polygon display="inline" fill="#FFFFFF" points="87.977,30.545 80.849,30.545 78.348,19.694 78.348,18.341 79.537,18.341 
		79.537,17.933 78.348,17.933 78.348,16.657 77.941,16.657 77.941,17.933 76.752,17.933 76.752,18.341 77.941,18.341 77.941,19.704 
		75.352,30.179 75.352,38.343 87.977,38.343 89.648,38.343 89.648,34.013 	"/>
</g>
</svg>
