{
"type": "FeatureCollection",
"crs": { "type": "name", "properties": { "name": "urn:ogc:def:crs:EPSG::3857" } },
                                                                                
"features": [
{ "type": "Feature", "properties": { "lat": 54.599368, "lon": -5.906454, "county": "Antrim", "parishid": 393, "parish": "St. Mathew's, Ballymacarrett", "canonical": "Belfast city: St. Mathew's, Ballymacarrett" }, "geometry": { "type": "Point", "coordinates": [ -657503.481730156, 7284496.684785204 ] } },
{ "type": "Feature", "properties": { "lat": 54.612202, "lon": -5.959647, "county": "Antrim", "parishid": 420, "parish": "Holy Cross", "canonical": "Belfast city: Holy Cross" }, "geometry": { "type": "Point", "coordinates": [ -663424.90942267736, 7286963.356202418 ] } },
{ "type": "Feature", "properties": { "lat": 54.615859, "lon": -5.935215, "county": "Antrim", "parishid": 1126, "parish": "Holy Family", "canonical": "Belfast city: Holy Family" }, "geometry": { "type": "Point", "coordinates": [ -660705.10152984434, 7287666.3080384368 ] } },
{ "type": "Feature", "properties": { "lat": 54.589222, "lon": -5.924725, "county": "Antrim", "parishid": 1125, "parish": "Holy Rosary", "canonical": "Belfast city: Holy Rosary" }, "geometry": { "type": "Point", "coordinates": [ -659537.32444918749, 7282547.1892831102 ] } },
{ "type": "Feature", "properties": { "lat": 54.616555, "lon": -5.952399, "county": "Antrim", "parishid": 1132, "parish": "Sacred Heart", "canonical": "Belfast city: Sacred Heart" }, "geometry": { "type": "Point", "coordinates": [ -662618.051281875, 7287800.1758173313 ] } },
{ "type": "Feature", "properties": { "lat": 54.576234, "lon": -5.944088, "county": "Antrim", "parishid": 1128, "parish": "St. Brigid's", "canonical": "Belfast city: St. Brigid's" }, "geometry": { "type": "Point", "coordinates": [ -661692.84939040721, 7280052.3421998546 ] } },
{ "type": "Feature", "properties": { "lat": 54.580487, "lon": -6.022422, "county": "Antrim", "parishid": 425, "parish": "St. Joseph's", "canonical": "Belfast city: St. Joseph's" }, "geometry": { "type": "Point", "coordinates": [ -670412.9715329106, 7280869.2941298904 ] } },
{ "type": "Feature", "properties": { "lat": 54.594493, "lon": -5.926051, "county": "Antrim", "parishid": 426, "parish": "St. Malachy's", "canonical": "Belfast city: St. Malachy's" }, "geometry": { "type": "Point", "coordinates": [ -659684.93632036808, 7283559.9329042025 ] } },
{ "type": "Feature", "properties": { "lat": 54.603074, "lon": -5.932797, "county": "Antrim", "parishid": 427, "parish": "St. Mary's", "canonical": "Belfast city: St. Mary's" }, "geometry": { "type": "Point", "coordinates": [ -660446.39156195847, 7285080.158048626 ] } },
{ "type": "Feature", "properties": { "lat": 54.605073, "lon": -5.931968, "county": "Antrim", "parishid": 428, "parish": "St. Patrick's", "canonical": "Belfast city: St. Patrick's" }, "geometry": { "type": "Point", "coordinates": [ -660343.67719950061, 7285593.0763903772 ] } },
{ "type": "Feature", "properties": { "lat": 54.589185, "lon": -5.969170, "county": "Antrim", "parishid": 1127, "parish": "St. Paul's", "canonical": "Belfast city: St. Paul's" }, "geometry": { "type": "Point", "coordinates": [ -664484.98378279794, 7282540.1347327102 ] } },
{ "type": "Feature", "properties": { "lat": 54.598926, "lon": -5.943006, "county": "Antrim", "parishid": 429, "parish": "St. Peter's", "canonical": "Belfast city: St. Peter's" }, "geometry": { "type": "Point", "coordinates": [ -661572.45513472403, 7284411.6309463121 ] } },
{ "type": "Feature", "properties": { "lat": 54.627808, "lon": -5.984594, "county": "Antrim", "parishid": 1129, "parish": "St. Vincent de Paul", "canonical": "Belfast city: St. Vincent de Paul" }, "geometry": { "type": "Point", "coordinates": [ -666201.95779767539, 7289963.7575080907 ] } },
{ "type": "Feature", "properties": { "lat": 54.588731, "lon": -5.940147, "county": "Antrim", "parishid": 1123, "parish": "Union Workhouse", "canonical": "Belfast city: Union Workhouse" }, "geometry": { "type": "Point", "coordinates": [ -661254.12925843801, 7282452.7890901919 ] } },
{ "type": "Feature", "properties": { "lat": 53.275061, "lon": -9.054475, "county": "Galway", "parishid": 638, "parish": "St. Nicholas East", "canonical": "Galway city: St. Nicholas East" }, "geometry": { "type": "Point", "coordinates": [ -1005762.5585643403, 7034051.4631684041 ] } },
{ "type": "Feature", "properties": { "lat": 53.272179, "lon": -9.052140, "county": "Galway", "parishid": 637, "parish": "St. Nicholas South and West", "canonical": "Galway city: St. Nicholas South and West" }, "geometry": { "type": "Point", "coordinates": [ -1005502.6464776504, 7033514.9036362655 ] } },
{ "type": "Feature", "properties": { "lat": 52.261456, "lon": -7.110984, "county": "Waterford", "parishid": 1109, "parish": "Holy Trinity", "canonical": "Waterford city: Holy Trinity" }, "geometry": { "type": "Point", "coordinates": [ -791580.41222076362, 6847428.5274766004 ] } },
{ "type": "Feature", "properties": { "lat": 52.261023, "lon": -7.113248, "county": "Waterford", "parishid": 1119, "parish": "St. Patrick's and St. Olaf's", "canonical": "Waterford city: St. Patrick's and St. Olaf's" }, "geometry": { "type": "Point", "coordinates": [ -791830.70784860884, 6847106.3566470928 ] } },
{ "type": "Feature", "properties": { "lat": 52.662437, "lon": -8.617158, "county": "Limerick", "parishid": 893, "parish": "St. John's", "canonical": "Limerick city: St. John's" }, "geometry": { "type": "Point", "coordinates": [ -959261.27213623736, 6920587.9924753401 ] } },
{ "type": "Feature", "properties": { "lat": 52.669441, "lon": -8.620170, "county": "Limerick", "parishid": 894, "parish": "St. Mary's", "canonical": "Limerick city: St. Mary's" }, "geometry": { "type": "Point", "coordinates": [ -959578.66662402253, 6921799.0420041466 ] } },
{ "type": "Feature", "properties": { "lat": 52.663758, "lon": -8.624081, "county": "Limerick", "parishid": 895, "parish": "St. Michael's", "canonical": "Limerick city: St. Michael's" }, "geometry": { "type": "Point", "coordinates": [ -960028.26651812484, 6921042.7980903368 ] } },
{ "type": "Feature", "properties": { "lat": 52.669657, "lon": -8.628704, "county": "Limerick", "parishid": 896, "parish": "St. Munchin's", "canonical": "Limerick city: St. Munchin's" }, "geometry": { "type": "Point", "coordinates": [ -960740.0200989088, 6921784.6501430981 ] } },
{ "type": "Feature", "properties": { "lat": 52.665586, "lon": -8.609633, "county": "Limerick", "parishid": 897, "parish": "St. Patrick's", "canonical": "Limerick city: St. Patrick's" }, "geometry": { "type": "Point", "coordinates": [ -958420.00043878506, 6921378.3045712737 ] } },
{ "type": "Feature", "properties": { "lat": 51.896475, "lon": -8.416557, "county": "Cork", "parishid": 38, "parish": "Blackrock", "canonical": "Cork city: Blackrock" }, "geometry": { "type": "Point", "coordinates": [ -936919.67302619526, 6781215.0403059451 ] } },
{ "type": "Feature", "properties": { "lat": 51.898963, "lon": -8.474194, "county": "Cork", "parishid": 39, "parish": "Ss Peter and Paul's", "canonical": "Cork city: Ss Peter and Paul's" }, "geometry": { "type": "Point", "coordinates": [ -943342.94983146538, 6781877.234832624 ] } },
{ "type": "Feature", "properties": { "lat": 51.894229, "lon": -8.471209, "county": "Cork", "parishid": 40, "parish": "St. Finbarr's (South)", "canonical": "Cork city: St. Finbarr's (South)" }, "geometry": { "type": "Point", "coordinates": [ -943014.24715761759, 6780987.6098708659 ] } },
{ "type": "Feature", "properties": { "lat": 51.904690, "lon": -8.476143, "county": "Cork", "parishid": 41, "parish": "St. Mary's", "canonical": "Cork city: St. Mary's" }, "geometry": { "type": "Point", "coordinates": [ -943559.97163154534, 6782910.5286651542 ] } },
{ "type": "Feature", "properties": { "lat": 51.901810, "lon": -8.463616, "county": "Cork", "parishid": 42, "parish": "St. Patrick's", "canonical": "Cork city: St. Patrick's" }, "geometry": { "type": "Point", "coordinates": [ -942165.3966731258, 6782390.8270532396 ] } },
{ "type": "Feature", "properties": { "lat": 52.096762, "lon": -8.700643, "county": "Cork", "parishid": 110, "parish": "Kilpadder", "canonical": "Kilpadder" }, "geometry": { "type": "Point", "coordinates": [ -932973.60849274218, 6845033.3091838891 ] } },
{ "type": "Feature", "properties": { "lat": 52.062170, "lon": -8.279742, "county": "Cork", "parishid": 111, "parish": "Kilshannig", "canonical": "Kilshannig" }, "geometry": { "type": "Point", "coordinates": [ -930827.62288817414, 6844557.8897279743 ] } },
{ "type": "Feature", "properties": { "lat": 52.655051, "lon": -7.259338, "county": "Kilkenny", "parishid": 990, "parish": "St. Canice's", "canonical": "Kilkenny city: St. Canice's" }, "geometry": { "type": "Point", "coordinates": [ -808105.82078821084, 6919444.8824005723 ] } },
{ "type": "Feature", "properties": { "lat": 52.652970, "lon": -7.244268, "county": "Kilkenny", "parishid": 991, "parish": "St. John's", "canonical": "Kilkenny city: St. John's" }, "geometry": { "type": "Point", "coordinates": [ -806428.27836336056, 6919062.9096702458 ] } },
{ "type": "Feature", "properties": { "lat": 52.652387, "lon": -7.257240, "county": "Kilkenny", "parishid": 992, "parish": "St. Mary's", "canonical": "Kilkenny city: St. Mary's" }, "geometry": { "type": "Point", "coordinates": [ -807872.27360972087, 6918955.9070562413 ] } },
{ "type": "Feature", "properties": { "lat": 52.648306, "lon": -7.250186, "county": "Kilkenny", "parishid": 993, "parish": "St. Patrick's", "canonical": "Kilkenny city: St. Patrick's" }, "geometry": { "type": "Point", "coordinates": [ -807087.03816680773, 6918207.2461364465 ] } },
{ "type": "Feature", "properties": { "lat": 52.655657, "lon": -7.242921, "county": "Kilkenny", "parishid": 994, "parish": "Workhouse", "canonical": "Kilkenny city: Workhouse" }, "geometry": { "type": "Point", "coordinates": [ -806278.32655648387, 6919556.1490290565 ] } },
{ "type": "Feature", "properties": { "lat": 53.354700, "lon": -6.288772, "county": "Dublin", "parishid": 511, "parish": "Aughrim St.", "canonical": "Dublin city: Aughrim St." }, "geometry": { "type": "Point", "coordinates": [ -700062.86224595516, 7048879.3157143248 ] } },
{ "type": "Feature", "properties": { "lat": 53.358148, "lon": -6.268576, "county": "Dublin", "parishid": 512, "parish": "Berkeley Road", "canonical": "Dublin city: Berkeley Road" }, "geometry": { "type": "Point", "coordinates": [ -697814.73062034347, 7049522.367865527 ] } },
{ "type": "Feature", "properties": { "lat": 53.361747, "lon": -6.278122, "county": "Dublin", "parishid": 513, "parish": "Cabra", "canonical": "Dublin city: Cabra" }, "geometry": { "type": "Point", "coordinates": [ -698877.32525373576, 7050193.6096207127 ] } },
{ "type": "Feature", "properties": { "lat": 53.332587, "lon": -6.268035, "county": "Dublin", "parishid": 517, "parish": "Harrington St.", "canonical": "Dublin city: Harrington St." }, "geometry": { "type": "Point", "coordinates": [ -697754.50009665254, 7044756.0560910208 ] } },
{ "type": "Feature", "properties": { "lat": 53.327934, "lon": -6.263915, "county": "Dublin", "parishid": 518, "parish": "Rathmines", "canonical": "Dublin city: Rathmines" }, "geometry": { "type": "Point", "coordinates": [ -697295.82149317965, 7043888.7599196751 ] } },
{ "type": "Feature", "properties": { "lat": 53.356879, "lon": -6.246303, "county": "Dublin", "parishid": 492, "parish": "St. Agatha's", "canonical": "Dublin city: St. Agatha's" }, "geometry": { "type": "Point", "coordinates": [ -695335.22588589659, 7049285.668936071 ] } },
{ "type": "Feature", "properties": { "lat": 53.343045, "lon": -6.249288, "county": "Dublin", "parishid": 493, "parish": "St. Andrew's", "canonical": "Dublin city: St. Andrew's" }, "geometry": { "type": "Point", "coordinates": [ -695667.61030067643, 7046705.8275223179 ] } },
{ "type": "Feature", "properties": { "lat": 53.343661, "lon": -6.273654, "county": "Dublin", "parishid": 494, "parish": "St. Audoen's", "canonical": "Dublin city: St. Audoen's" }, "geometry": { "type": "Point", "coordinates": [ -698379.98650430283, 7046684.5366545292 ] } },
{ "type": "Feature", "properties": { "lat": 53.342115, "lon": -6.278613, "county": "Dublin", "parishid": 495, "parish": "St. Catherine's", "canonical": "Dublin city: St. Catherine's" }, "geometry": { "type": "Point", "coordinates": [ -698924.76466940553, 7046418.2515930915 ] } },
{ "type": "Feature", "properties": { "lat": 53.343047, "lon": -6.287797, "county": "Dublin", "parishid": 496, "parish": "St. James'", "canonical": "Dublin city: St. James'" }, "geometry": { "type": "Point", "coordinates": [ -699954.3190632615, 7046706.125854711 ] } },
{ "type": "Feature", "properties": { "lat": 53.350986, "lon": -6.242218, "county": "Dublin", "parishid": 497, "parish": "St. Laurence O'Toole's", "canonical": "Dublin city: St. Laurence O'Toole's" }, "geometry": { "type": "Point", "coordinates": [ -694880.56591603719, 7048186.518201109 ] } },
{ "type": "Feature", "properties": { "lat": 53.350927, "lon": -6.259030, "county": "Dublin", "parishid": 520, "parish": "St. Mary's (Pro-Cathedral)", "canonical": "Dublin city: St. Mary's (Pro-Cathedral)" }, "geometry": { "type": "Point", "coordinates": [ -696752.02800704283, 7048175.4965034891 ] } },
{ "type": "Feature", "properties": { "lat": 53.344845, "lon": -6.269131, "county": "Dublin", "parishid": 498, "parish": "St. Michael and John's", "canonical": "Dublin city: St. Michael and John's" }, "geometry": { "type": "Point", "coordinates": [ -697876.41942936077, 7047041.3690429861 ] } },
{ "type": "Feature", "properties": { "lat": 53.348682, "lon": -6.275269, "county": "Dublin", "parishid": 499, "parish": "St. Michan's", "canonical": "Dublin city: St. Michan's" }, "geometry": { "type": "Point", "coordinates": [ -698559.72629372147, 7047835.1102685155 ] } },
{ "type": "Feature", "properties": { "lat": 53.341125, "lon": -6.273561, "county": "Dublin", "parishid": 500, "parish": "St. Nicholas' (Without)", "canonical": "Dublin city: St. Nicholas' (Without)" }, "geometry": { "type": "Point", "coordinates": [ -698362.5441557403, 7046086.770250882 ] } },
{ "type": "Feature", "properties": { "lat": 53.346441, "lon": -6.277552, "county": "Dublin", "parishid": 501, "parish": "St. Paul's", "canonical": "Dublin city: St. Paul's" }, "geometry": { "type": "Point", "coordinates": [ -698813.91210580582, 7047452.7848342005 ] } },
{ "type": "Feature", "properties": { "lat": 53.254299, "lon": -6.121411, "county": "Dublin", "parishid": 505, "parish": "Ballybrack", "canonical": "Ballybrack" }, "geometry": { "type": "Point", "coordinates": [ -681432.39219177677, 7030175.6640258599 ] } },
{ "type": "Feature", "properties": { "lat": 53.261414, "lon": -6.149297, "county": "Dublin", "parishid": 510, "parish": "Cabinteely", "canonical": "Cabinteely" }, "geometry": { "type": "Point", "coordinates": [ -684536.56290922279, 7031499.5964682763 ] } },
{ "type": "Feature", "properties": { "lat": 53.277630, "lon": -6.105872, "county": "Dublin", "parishid": 519, "parish": "Dalkey", "canonical": "Dalkey" }, "geometry": { "type": "Point", "coordinates": [ -679702.54073820228, 7034518.0155722946 ] } },
{ "type": "Feature", "properties": { "lat": 53.287891, "lon": -6.124948, "county": "Dublin", "parishid": 522, "parish": "Glasthule", "canonical": "Glasthule" }, "geometry": { "type": "Point", "coordinates": [ -681826.05242026399, 7036428.5006983913 ] } },
{ "type": "Feature", "properties": { "lat": 53.292777, "lon": -6.136165, "county": "Dublin", "parishid": 523, "parish": "Kingstown", "canonical": "Kingstown" }, "geometry": { "type": "Point", "coordinates": [ -683074.73650682985, 7037338.3678270746 ] } },
{ "type": "Feature", "properties": { "lat": 53.292803, "lon": -6.152875, "county": "Dublin", "parishid": 526, "parish": "Monkstown", "canonical": "Monkstown" }, "geometry": { "type": "Point", "coordinates": [ -684934.93863134016, 7037343.2733443137 ] } },
{ "type": "Feature", "properties": { "lat": 53.321477, "lon": -6.391892, "county": "Dublin", "parishid": 470, "parish": "Clondalkin", "canonical": "Clondalkin" }, "geometry": { "type": "Point", "coordinates": [ -711542.10809904733, 7042685.3011638969 ] } },
{ "type": "Feature", "properties": { "lat": 53.359378, "lon": -6.439188, "county": "Dublin", "parishid": 472, "parish": "Lucan", "canonical": "Lucan" }, "geometry": { "type": "Point", "coordinates": [ -716807.15933842142, 7049751.8066624487 ] } },
{ "type": "Feature", "properties": { "lat": 53.356538, "lon": -6.369975, "county": "Dublin", "parishid": 471, "parish": "Palmerstown", "canonical": "Palmerstown" }, "geometry": { "type": "Point", "coordinates": [ -709102.34553600941, 7049222.1205528844 ] } },
{ "type": "Feature", "properties": { "lat": 53.334624, "lon": -6.241375, "county": "Dublin", "parishid": 529, "parish": "Haddington Road", "canonical": "Haddington Road" }, "geometry": { "type": "Point", "coordinates": [ -694786.65122763102, 7045135.739851322 ] } },
{ "type": "Feature", "properties": { "lat": 53.319118, "lon": -6.230935, "county": "Dublin", "parishid": 516, "parish": "Donnybrook", "canonical": "Donnybrook" }, "geometry": { "type": "Point", "coordinates": [ -693624.47351735958, 7042245.5886617294 ] } },
{ "type": "Feature", "properties": { "lat": 53.300290, "lon": -6.175031, "county": "Dublin", "parishid": 506, "parish": "Blackrock", "canonical": "Blackrock" }, "geometry": { "type": "Point", "coordinates": [ -687401.30655267811, 7038737.762255271 ] } },
{ "type": "Feature", "properties": { "lat": 53.305589, "lon": -6.198487, "county": "Dublin", "parishid": 508, "parish": "Booterstown", "canonical": "Booterstown" }, "geometry": { "type": "Point", "coordinates": [ -690012.41652872518, 7039724.8736419678 ] } },
{ "type": "Feature", "properties": { "lat": 53.347022, "lon": -6.339586, "county": "Dublin", "parishid": 514, "parish": "Chapelizod", "canonical": "Chapelizod" }, "geometry": { "type": "Point", "coordinates": [ -705663.80850604281, 7046918.4166345922 ] } },
{ "type": "Feature", "properties": { "lat": 53.363281, "lon": -6.238542, "county": "Dublin", "parishid": 477, "parish": "Fairview", "canonical": "Fairview" }, "geometry": { "type": "Point", "coordinates": [ -694478.39946281118, 7050426.5056613442 ] } },
{ "type": "Feature", "properties": { "lat": 53.317164, "lon": -6.271152, "county": "Dublin", "parishid": 531, "parish": "Rathgar", "canonical": "Rathgar" }, "geometry": { "type": "Point", "coordinates": [ -698101.39834664273, 7041881.4740490783 ] } },
{ "type": "Feature", "properties": { "lat": 53.309909, "lon": -6.281605, "county": "Dublin", "parishid": 530, "parish": "Terenure", "canonical": "Terenure" }, "geometry": { "type": "Point", "coordinates": [ -699265.02654988039, 7040529.6286446266 ] } },
{ "type": "Feature", "properties": { "lat": 53.203621, "lon": -6.110545, "county": "Wicklow", "parishid": 509, "parish": "Bray", "canonical": "Bray" }, "geometry": { "type": "Point", "coordinates": [ -680222.74005826551, 7020751.5380066801 ] } },
{ "type": "Feature", "properties": { "lat": 53.209131, "lon": -6.115647, "county": "Wicklow", "parishid": 524, "parish": "Little Bray", "canonical": "Little Bray" }, "geometry": { "type": "Point", "coordinates": [ -680918.81872968329, 7021619.1094417125 ] } },
{ "type": "Feature", "properties": { "lat": 53.242761, "lon": -6.132421, "county": "Wicklow", "parishid": 1134, "parish": "Rathdown Union Workhouse", "canonical": "Rathdown Union Workhouse" }, "geometry": { "type": "Point", "coordinates": [ -682657.94074857142, 7028028.9004413756 ] } },
{ "type": "Feature", "properties": { "lat": 53.146594, "lon": -6.063506, "county": "Wicklow", "parishid": 3790, "parish": "Greystones", "canonical": "Greystones" }, "geometry": { "type": "Point", "coordinates": [ -674899.1505447122, 7010158.578244973 ] } },
{ "type": "Feature", "properties": { "lat": 53.332349, "lon": -6.213833, "county": "Dublin", "parishid": 528, "parish": "Sandymount", "canonical": "Sandymount" }, "geometry": { "type": "Point", "coordinates": [ -691723.16975774267, 7044700.7734086327 ] } }
]
}
